Quesion_3/03_verif/Topmodule/Verilator/tb_Selection_Sort.vcd
$version Generated by VerilatedVcd $end
$timescale 1ps $end
 $scope module TOP $end
  $scope module tb_Selection_Sort $end
   $var wire 32 t SIZE_ADDR [31:0] $end
   $var wire 32 u SIZE_DATA [31:0] $end
   $var wire 752 v PATH_RAM [751:0] $end
   $var wire 1 e clk $end
   $var wire 1 f rst_n $end
   $var wire 1 g start $end
   $var wire 4 h num_elems [3:0] $end
   $var wire 1 3 done $end
   $var wire 32 i dump_ram_contents__Vstatic__fd [31:0] $end
   $scope module DUT $end
    $var wire 32 t SIZE_ADDR [31:0] $end
    $var wire 32 u SIZE_DATA [31:0] $end
    $var wire 752 v PATH_RAM [751:0] $end
    $var wire 1 e i_clk $end
    $var wire 1 f i_rst_n $end
    $var wire 1 g i_start $end
    $var wire 4 h i_num_elems [3:0] $end
    $var wire 1 3 o_done $end
    $var wire 1 4 w_done_rd $end
    $var wire 1 5 w_done_wr $end
    $var wire 1 6 w_done_j $end
    $var wire 1 7 w_start_j $end
    $var wire 1 8 w_en_i $end
    $var wire 1 9 w_rd_en $end
    $var wire 8 : w_i_data [7:0] $end
    $var wire 8 j w_o_data [7:0] $end
    $var wire 4 b w_i_addr [3:0] $end
    $var wire 1 ; w_o_rd_en $end
    $var wire 1 < w_o_wr_en $end
    $scope module CONTROL_UNIT $end
     $var wire 1 e i_clk $end
     $var wire 1 f i_rst_n $end
     $var wire 1 g i_start $end
     $var wire 1 4 i_done_rd $end
     $var wire 1 5 i_done_wr $end
     $var wire 1 6 i_done_j $end
     $var wire 1 7 o_start_j $end
     $var wire 1 8 o_en_i $end
     $var wire 1 9 o_rd_en $end
     $var wire 3 = state [2:0] $end
     $var wire 3 k n_state [2:0] $end
    $upscope $end
    $scope module DATAPATH_UNIT $end
     $var wire 32 t SIZE_ADDR [31:0] $end
     $var wire 32 u SIZE_DATA [31:0] $end
     $var wire 1 e i_clk $end
     $var wire 1 f i_rst_n $end
     $var wire 4 h i_num_elems [3:0] $end
     $var wire 1 7 i_start_j $end
     $var wire 1 8 i_en_i $end
     $var wire 1 9 i_rd_en $end
     $var wire 1 4 o_done_rd $end
     $var wire 1 5 o_done_wr $end
     $var wire 1 6 o_done_j $end
     $var wire 8 : i_data_ram [7:0] $end
     $var wire 1 ; o_rd_en $end
     $var wire 1 < o_wr_en $end
     $var wire 4 b o_addr_ram [3:0] $end
     $var wire 8 j o_data_ram [7:0] $end
     $var wire 1 l w_UPDATE_J_en $end
     $var wire 4 > w_UPDATE_J_value_j [3:0] $end
     $var wire 1 6 w_UPDATE_J_done $end
     $var wire 1 ? w_UPDATE_I_start $end
     $var wire 1 @ w_UPDATE_I_start_start $end
     $var wire 1 A w_UPDATE_I_start_done $end
     $var wire 1 B w_UPDATE_I_done $end
     $var wire 4 C w_UPDATE_I_value_i [3:0] $end
     $var wire 1 D w_UPDATE_SMALLEST_en $end
     $var wire 1 E w_UPDATE_SMALLEST_select $end
     $var wire 4 F w_UPDATE_SMALLEST_value_smallest [3:0] $end
     $var wire 1 G w_SWAP_compare $end
     $scope module SWAP_UNIT $end
      $var wire 32 t SIZE_ADDR [31:0] $end
      $var wire 32 u SIZE_DATA [31:0] $end
      $var wire 1 e i_clk $end
      $var wire 1 f i_rst_n $end
      $var wire 1 9 i_rd_en $end
      $var wire 4 C i_addr_i [3:0] $end
      $var wire 4 F i_addr_smallest [3:0] $end
      $var wire 8 : i_data_ram [7:0] $end
      $var wire 1 ; o_rd_en $end
      $var wire 1 < o_wr_en $end
      $var wire 4 b o_addr_ram [3:0] $end
      $var wire 8 j o_data_ram [7:0] $end
      $var wire 1 G o_compare $end
      $var wire 1 4 o_done_rd $end
      $var wire 1 5 o_done_wr $end
      $var wire 8 c i_READ_data_i [7:0] $end
      $var wire 8 H w_READ_data_i [7:0] $end
      $var wire 8 d i_READ_data_smallest [7:0] $end
      $var wire 8 I w_READ_data_smallest [7:0] $end
      $var wire 1 J w_READ_en $end
      $var wire 1 ^ w_READ_select $end
      $var wire 1 K w_READ_rd_en $end
      $var wire 1 L w_READ_rd_en_1 $end
      $var wire 1 M w_o_done_1 $end
      $var wire 1 N w_WRITE_en $end
      $var wire 1 O w_WRITE_en_addr $end
      $var wire 1 P w_WRITE_en_1 $end
      $var wire 1 _ w_SELSWAP_sel $end
      $var wire 1 ` w_SELSWAP_sel_1 $end
      $var wire 1 a w_SELSWAP_sel_2 $end
      $scope module DEMUX_1_TO_2 $end
       $var wire 32 u SIZE_DATA [31:0] $end
       $var wire 8 : din [7:0] $end
       $var wire 1 ^ sel $end
       $var wire 8 d y0 [7:0] $end
       $var wire 8 c y1 [7:0] $end
      $upscope $end
      $scope module SWAP_ADDR_UNIT $end
       $var wire 32 t SIZE_ADDR [31:0] $end
       $var wire 1 e i_clk $end
       $var wire 1 f i_rst_n $end
       $var wire 1 O i_en $end
       $var wire 1 G i_compare $end
       $var wire 1 _ i_sel $end
       $var wire 4 C i_addr_i [3:0] $end
       $var wire 4 F i_addr_smallest [3:0] $end
       $var wire 4 b o_addr_ram [3:0] $end
       $var wire 4 Q w_max_addr [3:0] $end
       $var wire 4 R w_min_addr [3:0] $end
       $var wire 4 S w_addr_ram_1 [3:0] $end
       $var wire 4 T w_addr_ram_0 [3:0] $end
      $upscope $end
      $scope module SWAP_DATA_UNIT $end
       $var wire 32 u SIZE_DATA [31:0] $end
       $var wire 1 e i_clk $end
       $var wire 1 f i_rst_n $end
       $var wire 1 N i_en $end
       $var wire 1 G i_compare $end
       $var wire 1 _ i_sel $end
       $var wire 8 H i_data_i [7:0] $end
       $var wire 8 I i_data_smallest [7:0] $end
       $var wire 8 j o_data_ram [7:0] $end
       $var wire 8 U w_max_data [7:0] $end
       $var wire 8 V w_min_data [7:0] $end
       $var wire 8 W w_data_ram_1 [7:0] $end
       $var wire 8 X w_data_ram_0 [7:0] $end
      $upscope $end
      $scope module TFF_UNIT $end
       $var wire 1 J t $end
       $var wire 1 e clk $end
       $var wire 1 0! clrn $end
       $var wire 1 0! prn $end
       $var wire 1 ^ q $end
       $var wire 1 m q_next $end
      $upscope $end
      $scope module TFF_UNIT_1 $end
       $var wire 1 ; t $end
       $var wire 1 e clk $end
       $var wire 1 0! clrn $end
       $var wire 1 0! prn $end
       $var wire 1 ` q $end
       $var wire 1 n q_next $end
      $upscope $end
      $scope module TFF_UNIT_2 $end
       $var wire 1 N t $end
       $var wire 1 e clk $end
       $var wire 1 0! clrn $end
       $var wire 1 0! prn $end
       $var wire 1 a q $end
       $var wire 1 o q_next $end
      $upscope $end
     $upscope $end
     $scope module UPDATE_VALUE_I_UNIT $end
      $var wire 32 t SIZE_ADDR [31:0] $end
      $var wire 1 e i_clk $end
      $var wire 1 f i_rst_n $end
      $var wire 4 h i_num_elems [3:0] $end
      $var wire 1 ? i_start $end
      $var wire 1 8 i_en $end
      $var wire 4 > i_value_j [3:0] $end
      $var wire 4 C o_value_i [3:0] $end
      $var wire 1 B o_done $end
      $var wire 1 Y w_enable $end
      $var wire 1 ? w_start $end
      $var wire 4 Z w_pre_value_i [3:0] $end
      $var wire 4 [ w_next_value_i [3:0] $end
      $var wire 1 p w_pre_done $end
     $upscope $end
     $scope module UPDATE_VALUE_J_UNIT $end
      $var wire 32 t SIZE_ADDR [31:0] $end
      $var wire 1 e i_clk $end
      $var wire 1 f i_rst_n $end
      $var wire 4 h i_num_elems [3:0] $end
      $var wire 1 7 i_start $end
      $var wire 1 B i_en $end
      $var wire 1 l o_en $end
      $var wire 4 > o_value_j [3:0] $end
      $var wire 1 6 o_done $end
      $var wire 1 q w_start $end
      $var wire 4 r w_pre_value_j [3:0] $end
      $var wire 4 \ w_next_value_j [3:0] $end
      $var wire 1 s w_pre_done $end
      $var wire 1 l w_enable $end
     $upscope $end
     $scope module UPDATE_VALUE_SMALLEST_UNIT $end
      $var wire 32 t SIZE_ADDR [31:0] $end
      $var wire 1 e i_clk $end
      $var wire 1 f i_rst_n $end
      $var wire 4 > i_value_j [3:0] $end
      $var wire 4 C i_value_i [3:0] $end
      $var wire 1 D i_en $end
      $var wire 1 E i_select $end
      $var wire 4 F o_value_smallest [3:0] $end
      $var wire 1 ] w_enable $end
     $upscope $end
    $upscope $end
    $scope module RAM_UNIT $end
     $var wire 32 t SIZE_ADDR [31:0] $end
     $var wire 32 u SIZE_DATA [31:0] $end
     $var wire 752 v PATH_RAM [751:0] $end
     $var wire 1 e i_clk $end
     $var wire 1 f i_rst_n $end
     $var wire 1 ; i_rd_en $end
     $var wire 1 < i_wr_en $end
     $var wire 4 b i_addr [3:0] $end
     $var wire 8 j i_data [7:0] $end
     $var wire 8 : o_data [7:0] $end
     $var wire 32 1! DEPTH [31:0] $end
     $var wire 8 # mem_unit[0] [7:0] $end
     $var wire 8 $ mem_unit[1] [7:0] $end
     $var wire 8 % mem_unit[2] [7:0] $end
     $var wire 8 & mem_unit[3] [7:0] $end
     $var wire 8 ' mem_unit[4] [7:0] $end
     $var wire 8 ( mem_unit[5] [7:0] $end
     $var wire 8 ) mem_unit[6] [7:0] $end
     $var wire 8 * mem_unit[7] [7:0] $end
     $var wire 8 + mem_unit[8] [7:0] $end
     $var wire 8 , mem_unit[9] [7:0] $end
     $var wire 8 - mem_unit[10] [7:0] $end
     $var wire 8 . mem_unit[11] [7:0] $end
     $var wire 8 / mem_unit[12] [7:0] $end
     $var wire 8 0 mem_unit[13] [7:0] $end
     $var wire 8 1 mem_unit[14] [7:0] $end
     $var wire 8 2 mem_unit[15] [7:0] $end
    $upscope $end
   $upscope $end
  $upscope $end
 $upscope $end
$enddefinitions $end


#0
b01010001 #
b01111001 $
b10001000 %
b00110010 &
b10100110 '
b01001000 (
b11010101 )
b00110110 *
b01100010 +
b01110001 ,
b00001111 -
b11001010 .
b01110010 /
b10110011 0
b11001011 1
b00101100 2
03
04
05
06
07
08
09
b00000000 :
0;
0<
b000 =
b0000 >
0?
0@
0A
0B
b0000 C
0D
0E
b0000 F
0G
b00000000 H
b00000000 I
0J
0K
0L
0M
0N
0O
0P
b0000 Q
b0000 R
b0000 S
b0000 T
b00000000 U
b00000000 V
b00000000 W
b00000000 X
0Y
b0001 Z
b0001 [
b0001 \
0]
0^
0_
0`
0a
b0000 b
b00000000 c
b00000000 d
0e
0f
0g
b0000 h
b00000000000000000000000000000000 i
b00000000 j
b000 k
0l
0m
0n
0o
1p
0q
b0001 r
0s
b00000000000000000000000000000100 t
b00000000000000000000000000001000 u
b00101111011010000110111101101101011001010010111101101110011011110110111001100001011011010110010100101111010001000110111101100011011101010110110101100101011011100111010001110011001011110111000001110010011011110110101001100101011000110111010001011111011101000110100101101110011110010010111101000011011010000110000101110000011101000110010101110010001101010010111101010001011101010110010101110011011010010110111101101110010111110011001100101111001100000011001101011111011101100110010101110010011010010110011000101111010101000110111101110000011011010110111101100100011101010110110001100101001011110111010001101111011011110110110001110011001011110111001001100001011011100110010001101111011011010101111101101000011001010111100000101110011101000111100001110100 v
10!
b00000000000000000000000000010000 1!
#5000
b00000000 #
1e
#10000
0e
#15000
1e
#20000
0e
1f
#25000
1B
1e
1l
#30000
0e
#35000
b0001 >
1?
1A
1D
1Y
b0010 Z
b0010 \
1]
1e
b0010 r
#40000
0e
1g
b001 k
#45000
b001 =
b0010 >
b0010 C
b0001 F
b0010 Q
b0001 R
b0011 Z
b0011 [
b0011 \
1e
b010 k
0p
b0011 r
#50000
0e
0g
#55000
17
b010 =
b0011 >
0B
b0011 C
b0010 F
b0011 Q
b0010 R
b0100 Z
b0100 [
b0100 \
1e
b011 k
1q
b0000 r
#60000
0e
#65000
07
19
b011 =
b0000 >
1@
0A
b0100 C
b0011 F
1K
1O
b0100 Q
b0011 R
b0001 Z
b0101 [
b0001 \
1e
0l
0q
b0001 r
#70000
0e
#75000
09
1;
0?
0@
b0001 C
0D
b0000 F
0K
0O
b0001 Q
b0000 R
b0100 S
b0011 T
0Y
b0010 Z
b0010 [
0]
b0011 b
1e
1n
#80000
0e
#85000
b00110010 :
0;
1J
1_
1`
b0100 b
b00110010 d
1e
1m
#90000
0e
#95000
1E
1G
b00110010 I
0J
1K
1L
1N
1O
b0000 Q
b0001 R
b00110010 U
1]
1^
b00110010 c
b00000000 d
1e
1o
#100000
0e
#105000
1;
1<
b0001 F
0K
0L
1M
1P
b0001 Q
b0000 S
b0001 T
b00110010 W
1a
b0000 b
1e
b00110010 j
0n
0o
#110000
0e
#115000
b00110010 #
14
15
b00000000 :
0;
1J
0M
b0001 S
0_
0`
0a
b0001 b
b00000000 c
1e
b00000000 j
b100 k
0m
1o
#120000
0e
#125000
b00000000 $
04
b100 =
0E
0G
b00000000 I
0J
1K
1L
b00000000 U
0]
0^
1_
1a
1e
b00110010 j
b101 k
0o
#130000
0e
#135000
b00110010 $
1;
b101 =
0K
0L
1M
0N
0O
0P
b00000000 W
0_
0a
1e
b00000000 j
b110 k
1n
#140000
0e
#145000
b00000000 $
14
18
b00110010 :
0;
0<
b110 =
1J
0M
1Y
1_
1`
b00110010 d
1e
b010 k
1m
#150000
0e
#155000
04
05
08
b010 =
b0010 C
1E
1G
b00110010 I
0J
1K
1L
1N
1O
b0010 R
b00110010 U
0Y
b0011 Z
b0011 [
1]
1^
b00110010 c
b00000000 d
1e
b011 k
1o
#160000
0e
#165000
19
1;
1<
b011 =
b0010 F
0L
1M
1P
b0010 Q
b0010 T
b00110010 W
1a
1e
b00110010 j
0n
0o
#170000
0e
#175000
b00110010 $
14
15
09
b00000000 :
1J
0K
0M
b0010 S
0_
0`
0a
b0010 b
b00000000 c
1e
b00000000 j
b100 k
0m
1n
1o
#180000
0e
#185000
b00000000 %
04
b10001000 :
0;
b100 =
0E
0G
b00000000 I
1K
1L
b00000000 U
0]
0^
1_
1`
1a
b10001000 d
1e
b00110010 j
b101 k
1m
0o
#190000
0e
#195000
b00110010 %
1;
b101 =
1E
1G
b10001000 I
0J
1M
0P
b10001000 U
b00000000 W
1]
1^
0a
b10001000 c
b00000000 d
1e
b00000000 j
b110 k
0n
1o
#200000
0e
#205000
b00000000 %
14
18
b00110010 :
b110 =
1J
0K
0L
1P
b10001000 W
1Y
0`
1a
b00110010 c
1e
b10001000 j
b010 k
0m
1n
0o
#210000
0e
#215000
b10001000 %
08
b00000000 :
0;
b010 =
b0011 C
0E
0G
b00110010 H
b00000000 I
1K
1L
0M
b0011 Q
b00110010 U
0Y
b0100 Z
b0100 [
0]
0^
1`
0a
b00000000 c
1e
b011 k
1m
1o
#220000
0e
#225000
04
19
1;
b011 =
b00000000 H
0J
1M
0N
0P
b0011 S
b00000000 U
b00110010 W
1^
1a
b0011 b
1e
b00110010 j
0n
#230000
0e
#235000
14
09
b00110010 :
0<
1J
0K
0L
0O
0`
b00110010 c
1e
b100 k
0m
1n
#240000
0e
#245000
05
0;
b100 =
b00110010 H
1K
1L
0M
1O
b00110010 U
0^
1`
b00000000 c
b00110010 d
1e
1m
#250000
0e
#255000
04
1;
1E
1G
b00000000 H
b00110010 I
0J
1M
1N
b0010 Q
b0011 R
1]
1^
b00110010 c
b00000000 d
1e
0n
0o
#260000
0e
#265000
14
1<
b0011 F
1J
0K
0L
1P
b0011 Q
b0010 S
b0011 T
0_
0`
0a
1e
b00000000 j
0m
1n
1o
#270000
0e
#275000
b00000000 &
15
0;
0E
0G
b00110010 H
b00000000 I
1K
1L
0M
b0011 S
0]
0^
1_
1`
1a
b00000000 c
b00110010 d
1e
b00110010 j
b101 k
1m
0o
#280000
0e
#285000
b00110010 &
04
1;
b101 =
1E
1G
b00000000 H
b00110010 I
0J
1M
0P
1]
1^
0a
b00110010 c
b00000000 d
1e
b110 k
0n
1o
#290000
0e
#295000
14
18
b110 =
1J
0K
0L
1P
1Y
0`
1a
1e
b010 k
0m
1n
0o
#300000
0e
#305000
08
0;
b010 =
b0100 C
0E
0G
b00110010 H
b00000000 I
1K
1L
0M
b0100 Q
0Y
b0101 Z
b0101 [
0]
0^
1`
0a
b00000000 c
b00110010 d
1e
b011 k
1m
1o
#310000
0e
#315000
04
19
1;
b011 =
1E
1G
b00000000 H
b00110010 I
0J
1M
0P
b0011 Q
b0100 R
b0100 S
1]
1^
1a
b0100 b
b00110010 c
b00000000 d
1e
0n
0o
#320000
0e
#325000
b00110010 '
14
09
b10100110 :
b0100 F
1J
0K
0L
1P
b0100 Q
b0011 S
b0100 T
0_
0`
0a
b10100110 c
1e
b00000000 j
b100 k
0m
1n
1o
#330000
0e
#335000
b00000000 '
b00110010 :
0;
b100 =
0E
0G
b10100110 H
b00000000 I
1K
1L
0M
b0100 S
b10100110 U
0]
0^
1_
1`
1a
b00000000 c
b00110010 d
1e
b00110010 j
b101 k
1m
0o
#340000
0e
#345000
b00110010 '
04
1;
b101 =
1E
1G
b00000000 H
b00110010 I
0J
1M
0P
b00110010 U
b10100110 W
1]
1^
0a
b00110010 c
b00000000 d
1e
b10100110 j
b110 k
0n
1o
#350000
0e
#355000
b10100110 '
14
18
b110 =
1J
0K
0L
1P
b00110010 W
1Y
0`
1a
1e
b00110010 j
b010 k
0m
1n
0o
#360000
0e
#365000
b00110010 '
08
b10100110 :
0;
b010 =
b0101 C
0E
0G
b00110010 H
b00000000 I
1K
1L
0M
b0101 Q
0Y
b0110 Z
b0110 [
0]
0^
1`
0a
b00000000 c
b10100110 d
1e
b011 k
1m
1o
#370000
0e
#375000
04
19
1;
b011 =
1E
1G
b00000000 H
b10100110 I
0J
1M
0P
b0100 Q
b0101 R
b0101 S
b10100110 U
1]
1^
1a
b0101 b
b10100110 c
b00000000 d
1e
0n
0o
#380000
0e
#385000
b00110010 (
14
09
b01001000 :
b0101 F
1J
0K
0L
1P
b0101 Q
b0100 S
b0101 T
b10100110 W
0_
0`
0a
b01001000 c
1e
b00000000 j
b100 k
0m
1n
1o
#390000
0e
#395000
b00000000 (
b00110010 :
0;
b100 =
0E
0G
b01001000 H
b00000000 I
1K
1L
0M
b0101 S
b01001000 U
0]
0^
1_
1`
1a
b00000000 c
b00110010 d
1e
b10100110 j
b101 k
1m
0o
#400000
0e
#405000
b10100110 (
04
1;
b101 =
1E
1G
b00000000 H
b00110010 I
0J
1M
0P
b00110010 U
b01001000 W
1]
1^
0a
b00110010 c
b00000000 d
1e
b01001000 j
b110 k
0n
1o
#410000
0e
#415000
b01001000 (
14
18
b10100110 :
b110 =
1J
0K
0L
1P
b00110010 W
1Y
0`
1a
b10100110 c
1e
b00110010 j
b010 k
0m
1n
0o
#420000
0e
#425000
b00110010 (
08
b01001000 :
0;
b010 =
b0110 C
0E
0G
b10100110 H
b00000000 I
1K
1L
0M
b0110 Q
b10100110 U
0Y
b0111 Z
b0111 [
0]
0^
1`
0a
b00000000 c
b01001000 d
1e
b011 k
1m
1o
#430000
0e
#435000
04
19
1;
b011 =
1E
1G
b00000000 H
b01001000 I
0J
1M
0P
b0101 Q
b0110 R
b0110 S
b01001000 U
b10100110 W
1]
1^
1a
b0110 b
b01001000 c
b00000000 d
1e
b10100110 j
0n
0o
#440000
0e
#445000
b10100110 )
14
09
b11010101 :
b0110 F
1J
0K
0L
1P
b0110 Q
b0101 S
b0110 T
b01001000 W
0_
0`
0a
b11010101 c
1e
b00000000 j
b100 k
0m
1n
1o
#450000
0e
#455000
b00000000 )
b10100110 :
0;
b100 =
0E
0G
b11010101 H
b00000000 I
1K
1L
0M
b0110 S
b11010101 U
0]
0^
1_
1`
1a
b00000000 c
b10100110 d
1e
b01001000 j
b101 k
1m
0o
#460000
0e
#465000
b01001000 )
04
1;
b101 =
1E
1G
b00000000 H
b10100110 I
0J
1M
0P
b10100110 U
b11010101 W
1]
1^
0a
b10100110 c
b00000000 d
1e
b11010101 j
b110 k
0n
1o
#470000
0e
#475000
b11010101 )
14
18
b01001000 :
b110 =
1J
0K
0L
1P
b10100110 W
1Y
0`
1a
b01001000 c
1e
b10100110 j
b010 k
0m
1n
0o
#480000
0e
#485000
b10100110 )
08
b11010101 :
0;
b010 =
b0111 C
0E
0G
b01001000 H
b00000000 I
1K
1L
0M
b0111 Q
b01001000 U
0Y
b1000 Z
b1000 [
0]
0^
1`
0a
b00000000 c
b11010101 d
1e
b011 k
1m
1o
#490000
0e
#495000
04
19
1;
b011 =
1E
1G
b00000000 H
b11010101 I
0J
1M
0P
b0110 Q
b0111 R
b0111 S
b11010101 U
b01001000 W
1]
1^
1a
b0111 b
b11010101 c
b00000000 d
1e
b01001000 j
0n
0o
#500000
0e
#505000
b01001000 *
14
09
b00110110 :
b0111 F
1J
0K
0L
1P
b0111 Q
b0110 S
b0111 T
b11010101 W
0_
0`
0a
b00110110 c
1e
b00000000 j
b100 k
0m
1n
1o
#510000
0e
#515000
b00000000 *
b01001000 :
0;
b100 =
0E
0G
b00110110 H
b00000000 I
1K
1L
0M
b0111 S
b00110110 U
0]
0^
1_
1`
1a
b00000000 c
b01001000 d
1e
b11010101 j
b101 k
1m
0o
#520000
0e
#525000
b11010101 *
04
1;
b101 =
1E
1G
b00000000 H
b01001000 I
0J
1M
0P
b01001000 U
b00110110 W
1]
1^
0a
b01001000 c
b00000000 d
1e
b00110110 j
b110 k
0n
1o
#530000
0e
#535000
b00110110 *
14
18
b11010101 :
b110 =
1J
0K
0L
1P
b01001000 W
1Y
0`
1a
b11010101 c
1e
b01001000 j
b010 k
0m
1n
0o
#540000
0e
#545000
b01001000 *
08
b00110110 :
0;
b010 =
b1000 C
0E
0G
b11010101 H
b00000000 I
1K
1L
0M
b1000 Q
b11010101 U
0Y
b1001 Z
b1001 [
0]
0^
1`
0a
b00000000 c
b00110110 d
1e
b011 k
1m
1o
#550000
0e
#555000
04
19
1;
b011 =
1E
1G
b00000000 H
b00110110 I
0J
1M
0P
b0111 Q
b1000 R
b1000 S
b00110110 U
b11010101 W
1]
1^
1a
b1000 b
b00110110 c
b00000000 d
1e
b11010101 j
0n
0o
#560000
0e
#565000
b11010101 +
14
09
b01100010 :
b1000 F
1J
0K
0L
1P
b1000 Q
b0111 S
b1000 T
b00110110 W
0_
0`
0a
b01100010 c
1e
b00000000 j
b100 k
0m
1n
1o
#570000
0e
#575000
b00000000 +
b11010101 :
0;
b100 =
0E
0G
b01100010 H
b00000000 I
1K
1L
0M
b1000 S
b01100010 U
0]
0^
1_
1`
1a
b00000000 c
b11010101 d
1e
b00110110 j
b101 k
1m
0o
#580000
0e
#585000
b00110110 +
04
1;
b101 =
1E
1G
b00000000 H
b11010101 I
0J
1M
0P
b11010101 U
b01100010 W
1]
1^
0a
b11010101 c
b00000000 d
1e
b01100010 j
b110 k
0n
1o
#590000
0e
#595000
b01100010 +
14
18
b00110110 :
b110 =
1J
0K
0L
1P
b11010101 W
1Y
0`
1a
b00110110 c
1e
b11010101 j
b010 k
0m
1n
0o
#600000
0e
#605000
b11010101 +
08
b01100010 :
0;
b010 =
b1001 C
0E
0G
b00110110 H
b00000000 I
1K
1L
0M
b1001 Q
b00110110 U
0Y
b1010 Z
b1010 [
0]
0^
1`
0a
b00000000 c
b01100010 d
1e
b011 k
1m
1o
#610000
0e
#615000
04
19
1;
b011 =
1E
1G
b00000000 H
b01100010 I
0J
1M
0P
b1000 Q
b1001 R
b1001 S
b01100010 U
b00110110 W
1]
1^
1a
b1001 b
b01100010 c
b00000000 d
1e
b00110110 j
0n
0o
#620000
0e
#625000
b00110110 ,
14
09
b01110001 :
b1001 F
1J
0K
0L
1P
b1001 Q
b1000 S
b1001 T
b01100010 W
0_
0`
0a
b01110001 c
1e
b00000000 j
b100 k
0m
1n
1o
#630000
0e
#635000
b00000000 ,
b00110110 :
0;
b100 =
0E
0G
b01110001 H
b00000000 I
1K
1L
0M
b1001 S
b01110001 U
0]
0^
1_
1`
1a
b00000000 c
b00110110 d
1e
b01100010 j
b101 k
1m
0o
#640000
0e
#645000
b01100010 ,
04
1;
b101 =
1E
1G
b00000000 H
b00110110 I
0J
1M
0P
b00110110 U
b01110001 W
1]
1^
0a
b00110110 c
b00000000 d
1e
b01110001 j
b110 k
0n
1o
#650000
0e
#655000
b01110001 ,
14
18
b01100010 :
b110 =
1J
0K
0L
1P
b00110110 W
1Y
0`
1a
b01100010 c
1e
b00110110 j
b010 k
0m
1n
0o
#660000
0e
#665000
b00110110 ,
08
b01110001 :
0;
b010 =
b1010 C
0E
0G
b01100010 H
b00000000 I
1K
1L
0M
b1010 Q
b01100010 U
0Y
b1011 Z
b1011 [
0]
0^
1`
0a
b00000000 c
b01110001 d
1e
b011 k
1m
1o
#670000
0e
#675000
04
19
1;
b011 =
1E
1G
b00000000 H
b01110001 I
0J
1M
0P
b1001 Q
b1010 R
b1010 S
b01110001 U
b01100010 W
1]
1^
1a
b1010 b
b01110001 c
b00000000 d
1e
b01100010 j
0n
0o
#680000
0e
#685000
b01100010 -
14
09
b00001111 :
b1010 F
1J
0K
0L
1P
b1010 Q
b1001 S
b1010 T
b01110001 W
0_
0`
0a
b00001111 c
1e
b00000000 j
b100 k
0m
1n
1o
#690000
0e
#695000
b00000000 -
b01100010 :
0;
b100 =
0E
0G
b00001111 H
b00000000 I
1K
1L
0M
b1010 S
b00001111 U
0]
0^
1_
1`
1a
b00000000 c
b01100010 d
1e
b01110001 j
b101 k
1m
0o
#700000
0e
#705000
b01110001 -
04
1;
b101 =
1E
1G
b00000000 H
b01100010 I
0J
1M
0P
b01100010 U
b00001111 W
1]
1^
0a
b01100010 c
b00000000 d
1e
b00001111 j
b110 k
0n
1o
#710000
0e
#715000
b00001111 -
14
18
b01110001 :
b110 =
1J
0K
0L
1P
b01100010 W
1Y
0`
1a
b01110001 c
1e
b01100010 j
b010 k
0m
1n
0o
#720000
0e
#725000
b01100010 -
08
b00001111 :
0;
b010 =
b1011 C
0E
0G
b01110001 H
b00000000 I
1K
1L
0M
b1011 Q
b01110001 U
0Y
b1100 Z
b1100 [
0]
0^
1`
0a
b00000000 c
b00001111 d
1e
b011 k
1m
1o
#730000
0e
#735000
04
19
1;
b011 =
1E
1G
b00000000 H
b00001111 I
0J
1M
0P
b1010 Q
b1011 R
b1011 S
b00001111 U
b01110001 W
1]
1^
1a
b1011 b
b00001111 c
b00000000 d
1e
b01110001 j
0n
0o
#740000
0e
#745000
b01110001 .
14
09
b11001010 :
b1011 F
1J
0K
0L
1P
b1011 Q
b1010 S
b1011 T
b00001111 W
0_
0`
0a
b11001010 c
1e
b00000000 j
b100 k
0m
1n
1o
#750000
0e
#755000
b00000000 .
b01110001 :
0;
b100 =
0E
0G
b11001010 H
b00000000 I
1K
1L
0M
b1011 S
b11001010 U
0]
0^
1_
1`
1a
b00000000 c
b01110001 d
1e
b00001111 j
b101 k
1m
0o
#760000
0e
#765000
b00001111 .
04
1;
b101 =
1E
1G
b00000000 H
b01110001 I
0J
1M
0P
b01110001 U
b11001010 W
1]
1^
0a
b01110001 c
b00000000 d
1e
b11001010 j
b110 k
0n
1o
#770000
0e
#775000
b11001010 .
14
18
b00001111 :
b110 =
1J
0K
0L
1P
b01110001 W
1Y
0`
1a
b00001111 c
1e
b01110001 j
b010 k
0m
1n
0o
#780000
0e
#785000
b01110001 .
08
b11001010 :
0;
b010 =
b1100 C
0E
0G
b00001111 H
b00000000 I
1K
1L
0M
b1100 Q
b00001111 U
0Y
b1101 Z
b1101 [
0]
0^
1`
0a
b00000000 c
b11001010 d
1e
b011 k
1m
1o
#790000
0e
#795000
04
19
1;
b011 =
1E
1G
b00000000 H
b11001010 I
0J
1M
0P
b1011 Q
b1100 R
b1100 S
b11001010 U
b00001111 W
1]
1^
1a
b1100 b
b11001010 c
b00000000 d
1e
b00001111 j
0n
0o
#800000
0e
#805000
b00001111 /
14
09
b01110010 :
b1100 F
1J
0K
0L
1P
b1100 Q
b1011 S
b1100 T
b11001010 W
0_
0`
0a
b01110010 c
1e
b00000000 j
b100 k
0m
1n
1o
#810000
0e
#815000
b00000000 /
b00001111 :
0;
b100 =
0E
0G
b01110010 H
b00000000 I
1K
1L
0M
b1100 S
b01110010 U
0]
0^
1_
1`
1a
b00000000 c
b00001111 d
1e
b11001010 j
b101 k
1m
0o
#820000
0e
#825000
b11001010 /
04
1;
b101 =
1E
1G
b00000000 H
b00001111 I
0J
1M
0P
b00001111 U
b01110010 W
1]
1^
0a
b00001111 c
b00000000 d
1e
b01110010 j
b110 k
0n
1o
#830000
0e
#835000
b01110010 /
14
18
b11001010 :
b110 =
1J
0K
0L
1P
b00001111 W
1Y
0`
1a
b11001010 c
1e
b00001111 j
b010 k
0m
1n
0o
#840000
0e
#845000
b00001111 /
08
b01110010 :
0;
b010 =
b1101 C
0E
0G
b11001010 H
b00000000 I
1K
1L
0M
b1101 Q
b11001010 U
0Y
b1110 Z
b1110 [
0]
0^
1`
0a
b00000000 c
b01110010 d
1e
b011 k
1m
1o
#850000
0e
#855000
04
19
1;
b011 =
1E
1G
b00000000 H
b01110010 I
0J
1M
0P
b1100 Q
b1101 R
b1101 S
b01110010 U
b11001010 W
1]
1^
1a
b1101 b
b01110010 c
b00000000 d
1e
b11001010 j
0n
0o
#860000
0e
#865000
b11001010 0
14
09
b10110011 :
b1101 F
1J
0K
0L
1P
b1101 Q
b1100 S
b1101 T
b01110010 W
0_
0`
0a
b10110011 c
1e
b00000000 j
b100 k
0m
1n
1o
#870000
0e
#875000
b00000000 0
b11001010 :
0;
b100 =
0E
0G
b10110011 H
b00000000 I
1K
1L
0M
b1101 S
b10110011 U
0]
0^
1_
1`
1a
b00000000 c
b11001010 d
1e
b01110010 j
b101 k
1m
0o
#880000
0e
#885000
b01110010 0
04
1;
b101 =
1E
1G
b00000000 H
b11001010 I
0J
1M
0P
b11001010 U
b10110011 W
1]
1^
0a
b11001010 c
b00000000 d
1e
b10110011 j
b110 k
0n
1o
#890000
0e
